{
    "Provider": {
        "Cnpj": [
            [
                "GerarNfseEnvio", 
                "Rps", 
                "InfDeclaracaoPrestacaoServico", 
                "Prestador", 
                "CpfCnpj", 
                "Cnpj"
            ]
        ], 
        "CodigoCnae": [
            [
                "GerarNfseEnvio", 
                "Rps", 
                "InfDeclaracaoPrestacaoServico", 
                "Servico", 
                "CodigoCnae"
            ]
        ], 
        "CodigoMunicipio": [
            [
                "GerarNfseEnvio", 
                "Rps", 
                "InfDeclaracaoPrestacaoServico", 
                "Servico", 
                "CodigoMunicipio"
            ], 
            [
                "GerarNfseEnvio", 
                "Rps", 
                "InfDeclaracaoPrestacaoServico", 
                "Servico", 
                "MunicipioIncidencia"
            ]
        ], 
        "ExigibilidadeISS": [
            [
                "GerarNfseEnvio", 
                "Rps", 
                "InfDeclaracaoPrestacaoServico", 
                "Servico", 
                "ExigibilidadeISS"
            ]
        ], 
        "IncentivoFiscal": [
            [
                "GerarNfseEnvio", 
                "Rps", 
                "InfDeclaracaoPrestacaoServico", 
                "IncentivoFiscal"
            ]
        ], 
        "InscricaoMunicipal": [
            [
                "GerarNfseEnvio", 
                "Rps", 
                "InfDeclaracaoPrestacaoServico", 
                "Prestador", 
                "InscricaoMunicipal"
            ]
        ], 
        "IssRetido": [
            [
                "GerarNfseEnvio", 
                "Rps", 
                "InfDeclaracaoPrestacaoServico", 
                "Servico", 
                "IssRetido"
            ]
        ], 
        "ItemListaServico": [
            [
                "GerarNfseEnvio", 
                "Rps", 
                "InfDeclaracaoPrestacaoServico", 
                "Servico", 
                "ItemListaServico"
            ]
        ], 
        "OptanteSimplesNacional": [
            [
                "GerarNfseEnvio", 
                "Rps", 
                "InfDeclaracaoPrestacaoServico", 
                "OptanteSimplesNacional"
            ]
        ], 
        "Serie": [
            [
                "GerarNfseEnvio", 
                "Rps", 
                "InfDeclaracaoPrestacaoServico", 
                "Rps", 
                "IdentificacaoRps", 
                "Serie"
            ]
        ], 
        "Tipo": [
            [
                "GerarNfseEnvio", 
                "Rps", 
                "InfDeclaracaoPrestacaoServico", 
                "Rps", 
                "IdentificacaoRps", 
                "Tipo"
            ]
        ]
    }, 
    "Service": {
        "Competencia": [
            [
                "GerarNfseEnvio", 
                "Rps", 
                "InfDeclaracaoPrestacaoServico", 
                "Competencia"
            ]
        ], 
        "DataEmissao": [
            [
                "GerarNfseEnvio", 
                "Rps", 
                "InfDeclaracaoPrestacaoServico", 
                "Rps", 
                "DataEmissao"
            ]
        ], 
        "Discriminacao": [
            [
                "GerarNfseEnvio", 
                "Rps", 
                "InfDeclaracaoPrestacaoServico", 
                "Servico", 
                "Discriminacao"
            ]
        ], 
        "ValorServicos": [
            [
                "GerarNfseEnvio", 
                "Rps", 
                "InfDeclaracaoPrestacaoServico", 
                "Servico", 
                "Valores", 
                "ValorServicos"
            ]
        ]
    }, 
    "TakerPF": {
        "Bairro": [
            [
                "GerarNfseEnvio", 
                "Rps", 
                "InfDeclaracaoPrestacaoServico", 
                "Tomador", 
                "Endereco", 
                "Bairro"
            ]
        ], 
        "Cpf": [
            [
                "GerarNfseEnvio", 
                "Rps", 
                "InfDeclaracaoPrestacaoServico", 
                "Tomador", 
                "IdentificacaoTomador", 
                "CpfCnpj", 
                "Cpf"
            ]
        ], 
        "CodigoMunicipio": [
            [
                "GerarNfseEnvio", 
                "Rps", 
                "InfDeclaracaoPrestacaoServico", 
                "Tomador", 
                "Endereco", 
                "CodigoMunicipio"
            ]
        ], 
        "Endereco": [
            [
                "GerarNfseEnvio", 
                "Rps", 
                "InfDeclaracaoPrestacaoServico", 
                "Tomador", 
                "Endereco", 
                "Endereco"
            ]
        ], 
        "Numero": [
            [
                "GerarNfseEnvio", 
                "Rps", 
                "InfDeclaracaoPrestacaoServico", 
                "Tomador", 
                "Endereco", 
                "Numero"
            ]
        ], 
        "Uf": [
            [
                "GerarNfseEnvio", 
                "Rps", 
                "InfDeclaracaoPrestacaoServico", 
                "Tomador", 
                "Endereco", 
                "Uf"
            ]
        ]
    }, 
    "TakerPJ": {
        "Bairro": [
            [
                "GerarNfseEnvio", 
                "Rps", 
                "InfDeclaracaoPrestacaoServico", 
                "Tomador", 
                "Endereco", 
                "Bairro"
            ]
        ], 
        "Cnpj": [
            [
                "GerarNfseEnvio", 
                "Rps", 
                "InfDeclaracaoPrestacaoServico", 
                "Tomador", 
                "IdentificacaoTomador", 
                "CpfCnpj", 
                "Cnpj"
            ]
        ], 
        "CodigoMunicipio": [
            [
                "GerarNfseEnvio", 
                "Rps", 
                "InfDeclaracaoPrestacaoServico", 
                "Tomador", 
                "Endereco", 
                "CodigoMunicipio"
            ]
        ], 
        "Endereco": [
            [
                "GerarNfseEnvio", 
                "Rps", 
                "InfDeclaracaoPrestacaoServico", 
                "Tomador", 
                "Endereco", 
                "Endereco"
            ]
        ], 
        "Numero": [
            [
                "GerarNfseEnvio", 
                "Rps", 
                "InfDeclaracaoPrestacaoServico", 
                "Tomador", 
                "Endereco", 
                "Numero"
            ]
        ], 
        "RazaoSocial": [
            [
                "GerarNfseEnvio", 
                "Rps", 
                "InfDeclaracaoPrestacaoServico", 
                "Tomador", 
                "RazaoSocial"
            ]
        ], 
        "Uf": [
            [
                "GerarNfseEnvio", 
                "Rps", 
                "InfDeclaracaoPrestacaoServico", 
                "Tomador", 
                "Endereco", 
                "Uf"
            ]
        ]
    }
}